spi/spiflash_read16/chronovu_la16/chronovu_la16_spiflash_read16.vcd
$date
  August 13, 2014
$end
$version
  ChronoVu LA-16 Version 4.00 
$end
$comment
  File: C:\Users\TM\Desktop\chronovu_la16_spiflash_read16.kd1
  from sample 0 to sample 4194303
$end
$timescale 1 ns $end
$scope module la16 $end
$var wire 1 0 Channel_0 $end
$var wire 1 1 Channel_1 $end
$var wire 1 2 Channel_2 $end
$var wire 1 3 Channel_3 $end
$var wire 1 4 Channel_4 $end
$var wire 1 5 Channel_5 $end
$var wire 1 6 Channel_6 $end
$var wire 1 7 Channel_7 $end
$var wire 1 8 Channel_8 $end
$var wire 1 9 Channel_9 $end
$var wire 1 A Channel_10 $end
$var wire 1 B Channel_11 $end
$var wire 1 C Channel_12 $end
$var wire 1 D Channel_13 $end
$var wire 1 E Channel_14 $end
$var wire 1 F Channel_15 $end
$upscope $end
$enddefinitions $end
$dumpvars
10
11
12
13
14
15
16
17
18
19
1A
1B
1C
0D
1E
0F
$end
#0
10
11
12
13
14
15
16
17
18
19
1A
1B
1C
0D
1E
0F
#17941180
03
#17942175
00
#17942180
01
#17942675
10
#17943175
00
#17943675
10
#17944175
00
#17944675
10
#17945175
00
#17945675
10
#17946175
00
#17946675
10
#17947175
00
#17947675
10
#17948175
00
#17948180
11
#17948675
10
#17949175
00
#17949675
10
#17952720
00
#17952725
01
#17953220
10
#17953720
00
#17954220
10
#17954720
00
#17955220
10
#17955720
00
#17956220
10
#17956720
00
#17957220
10
#17957720
00
#17958220
10
#17958720
00
#17959220
10
#17959720
00
#17960220
10
#17961225
11
#17962265
01
#17963260
00
#17963760
10
#17964260
00
#17964760
10
#17965260
00
#17965760
10
#17966260
00
#17966760
10
#17967260
00
#17967760
10
#17968260
00
#17968760
10
#17969260
00
#17969760
10
#17970260
00
#17970760
10
#17971765
11
#17972810
01
#17973805
00
#17974305
10
#17974805
00
#17975305
10
#17975805
00
#17976305
10
#17976800
00
#17977305
10
#17977805
00
#17978305
10
#17978805
00
#17979305
10
#17979805
00
#17980305
10
#17980805
00
#17981305
10
#17982310
11
#17983350
01
#17984345
00
#17984350
11
#17984845
10
#17985345
00
#17985845
10
#17986345
00
#17986845
10
#17987345
00
#17987845
10
#17988345
00
#17988845
10
#17989345
00
#17989845
10
#17990345
00
#17990845
10
#17991345
00
#17991845
10
#17994885
00
#17995385
10
#17995885
00
#17996385
10
#17996885
00
#17997385
10
#17997885
00
#17998385
10
#17998885
00
#17999385
10
#17999885
00
#18000385
10
#18000885
00
#18001385
10
#18001885
00
#18002385
10
#18005430
00
#18005930
10
#18006430
00
#18006930
10
#18007430
00
#18007930
10
#18008430
00
#18008930
10
#18009430
00
#18009930
10
#18010430
00
#18010930
10
#18011430
00
#18011930
10
#18012430
00
#18012930
10
#18015970
00
#18016470
10
#18016970
00
#18017470
10
#18017970
00
#18018470
10
#18018970
00
#18019470
10
#18019970
00
#18020470
10
#18020970
00
#18021470
10
#18021970
00
#18022470
10
#18022970
00
#18023470
10
#18026510
00
#18027010
10
#18027510
00
#18028010
10
#18028510
00
#18029010
10
#18029510
00
#18030010
10
#18030510
00
#18031010
10
#18031510
00
#18032010
10
#18032510
00
#18033010
10
#18033510
00
#18034010
10
#18037055
00
#18037555
10
#18038055
00
#18038555
10
#18039055
00
#18039555
10
#18040055
00
#18040555
10
#18041055
00
#18041555
10
#18042055
00
#18042555
10
#18043055
00
#18043555
10
#18044055
00
#18044555
10
#18047595
00
#18048095
10
#18048595
00
#18049095
10
#18049595
00
#18050095
10
#18050595
00
#18051095
10
#18051595
00
#18052095
10
#18052595
00
#18053095
10
#18053595
00
#18054095
10
#18054595
00
#18055095
10
#18058135
00
#18058635
10
#18059135
00
#18059635
10
#18060135
00
#18060635
10
#18061135
00
#18061635
10
#18062135
00
#18062635
10
#18063135
00
#18063635
10
#18064135
00
#18064635
10
#18065135
00
#18065635
10
#18068680
00
#18069180
10
#18069680
00
#18070180
10
#18070680
00
#18071180
10
#18071680
00
#18072180
10
#18072680
00
#18073180
10
#18073680
00
#18074180
10
#18074680
00
#18075180
10
#18075680
00
#18076180
10
#18079220
00
#18079720
10
#18080220
00
#18080720
10
#18081220
00
#18081720
10
#18082220
00
#18082720
10
#18083220
00
#18083720
10
#18084220
00
#18084720
10
#18085220
00
#18085720
10
#18086220
00
#18086720
10
#18089760
00
#18090260
10
#18090760
00
#18091260
10
#18091760
00
#18092260
10
#18092760
00
#18093260
10
#18093760
00
#18094260
10
#18094760
00
#18095260
10
#18095760
00
#18096260
10
#18096760
00
#18097260
10
#18100305
00
#18100805
10
#18101305
00
#18101805
10
#18102305
00
#18102805
10
#18103305
00
#18103805
10
#18104305
00
#18104805
10
#18105305
00
#18105805
10
#18106305
00
#18106805
10
#18107305
00
#18107805
10
#18110845
00
#18111345
10
#18111845
00
#18112345
10
#18112845
00
#18113345
10
#18113845
00
#18114345
10
#18114845
00
#18115345
10
#18115845
00
#18116345
10
#18116845
00
#18117345
10
#18117845
00
#18118345
10
#18121385
00
#18121885
10
#18122385
00
#18122885
10
#18123385
00
#18123885
10
#18124385
00
#18124885
10
#18125385
00
#18125885
10
#18126385
00
#18126885
10
#18127385
00
#18127885
10
#18128385
00
#18128885
10
#18131930
00
#18132430
10
#18132930
00
#18133430
10
#18133930
00
#18134430
10
#18134930
00
#18135430
10
#18135930
00
#18136430
10
#18136930
00
#18137430
10
#18137930
00
#18138430
10
#18138930
00
#18139430
10
#18142470
00
#18142970
10
#18143470
00
#18143970
10
#18144470
00
#18144970
10
#18145470
00
#18145970
10
#18146470
00
#18146970
10
#18147470
00
#18147970
10
#18148470
00
#18148970
10
#18149470
00
#18149970
10
#18152330
13
