spi/spiflash_read16/chronovu_la8/chronovu_la8_spiflash_read16.vcd
$date
  August 13, 2014
$end
$version
  ChronoVu LA-8 Version 4.00 
$end
$comment
  File: C:\Users\TM\Desktop\chronovu_la8_spiflash_read16.kdt
  from sample 0 to sample 8388607
$end
$timescale 10 ns $end
$scope module la8 $end
$var wire 1 0 Channel_0 $end
$var wire 1 1 Channel_1 $end
$var wire 1 2 Channel_2 $end
$var wire 1 3 Channel_3 $end
$var wire 1 4 Channel_4 $end
$var wire 1 5 Channel_5 $end
$var wire 1 6 Channel_6 $end
$var wire 1 7 Channel_7 $end
$upscope $end
$enddefinitions $end
$dumpvars
00
11
02
13
14
15
16
17
$end
#0
00
11
02
13
14
15
16
17
#559752
07
#559852
01
03
#559902
13
#559952
03
#560002
13
#560052
03
#560102
13
#560152
03
#560202
13
#560252
03
#560302
13
#560352
03
#560402
13
#560452
03
#560453
11
#560502
13
#560552
03
#560602
13
#560906
03
#560907
01
#560956
13
#561006
03
#561056
13
#561106
03
#561156
13
#561206
03
#561256
13
#561306
03
#561356
13
#561406
03
#561456
13
#561506
03
#561556
13
#561606
03
#561656
13
#561757
11
#561861
01
#561960
03
#562010
13
#562060
03
#562110
13
#562160
03
#562210
13
#562260
03
#562310
13
#562360
03
#562410
13
#562460
03
#562510
13
#562560
03
#562610
13
#562660
03
#562710
13
#562811
11
#562915
01
#563014
03
#563065
13
#563114
03
#563165
13
#563214
03
#563265
13
#563314
03
#563365
13
#563414
03
#563465
13
#563514
03
#563565
13
#563614
03
#563665
13
#563714
03
#563765
13
#563865
11
#563969
01
#564069
11
03
#564119
13
#564169
03
#564219
13
#564269
03
#564319
13
#564369
03
#564419
13
#564469
03
#564519
13
#564569
03
#564619
13
#564669
03
#564719
13
#564769
03
#564819
13
#565123
03
#565173
13
#565223
03
#565273
13
#565323
03
#565373
13
#565423
03
#565473
13
#565523
03
#565573
13
#565623
03
#565673
13
#565723
03
#565773
13
#565823
03
#565873
13
#566177
03
#566227
13
#566277
03
#566327
13
#566377
03
#566427
13
#566477
03
#566527
13
#566577
03
#566627
13
#566677
03
#566727
13
#566777
03
#566827
13
#566877
03
#566927
13
#567231
03
#567281
13
#567331
03
#567381
13
#567431
03
#567481
13
#567531
03
#567581
13
#567631
03
#567681
13
#567731
03
#567781
13
#567831
03
#567881
13
#567931
03
#567981
13
#568285
03
#568336
13
#568385
03
#568436
13
#568485
03
#568536
13
#568585
03
#568636
13
#568685
03
#568736
13
#568785
03
#568836
13
#568885
03
#568936
13
#568985
03
#569036
13
#569340
03
#569390
13
#569440
03
#569490
13
#569540
03
#569590
13
#569640
03
#569690
13
#569740
03
#569790
13
#569840
03
#569890
13
#569940
03
#569990
13
#570040
03
#570090
13
#570394
03
#570444
13
#570494
03
#570544
13
#570594
03
#570644
13
#570694
03
#570744
13
#570794
03
#570844
13
#570894
03
#570944
13
#570994
03
#571044
13
#571094
03
#571144
13
#571448
03
#571498
13
#571548
03
#571598
13
#571648
03
#571698
13
#571748
03
#571798
13
#571848
03
#571898
13
#571948
03
#571998
13
#572048
03
#572098
13
#572148
03
#572198
13
#572502
03
#572552
13
#572602
03
#572652
13
#572702
03
#572752
13
#572802
03
#572852
13
#572902
03
#572952
13
#573002
03
#573052
13
#573102
03
#573152
13
#573202
03
#573252
13
#573556
03
#573606
13
#573656
03
#573706
13
#573756
03
#573806
13
#573856
03
#573906
13
#573956
03
#574006
13
#574056
03
#574106
13
#574156
03
#574206
13
#574256
03
#574306
13
#574610
03
#574660
13
#574710
03
#574760
13
#574810
03
#574861
13
#574910
03
#574960
13
#575010
03
#575060
13
#575110
03
#575160
13
#575210
03
#575260
13
#575310
03
#575361
13
#575665
03
#575715
13
#575765
03
#575815
13
#575865
03
#575915
13
#575965
03
#576015
13
#576065
03
#576115
13
#576165
03
#576215
13
#576265
03
#576315
13
#576365
03
#576415
13
#576719
03
#576769
13
#576819
03
#576869
13
#576919
03
#576969
13
#577019
03
#577069
13
#577119
03
#577169
13
#577219
03
#577269
13
#577319
03
#577369
13
#577419
03
#577469
13
#577773
03
#577823
13
#577873
03
#577923
13
#577973
03
#578023
13
#578073
03
#578123
13
#578173
03
#578223
13
#578273
03
#578323
13
#578373
03
#578423
13
#578473
03
#578523
13
#578827
03
#578877
13
#578927
03
#578977
13
#579027
03
#579077
13
#579127
03
#579177
13
#579227
03
#579277
13
#579327
03
#579377
13
#579427
03
#579477
13
#579527
03
#579577
13
#579881
03
#579931
13
#579981
03
#580031
13
#580081
03
#580131
13
#580181
03
#580231
13
#580281
03
#580331
13
#580381
03
#580431
13
#580481
03
#580531
13
#580581
03
#580631
13
#580867
17
#2581694
07
#2581794
01
03
#2581844
13
#2581894
03
#2581944
13
#2581994
03
#2582044
13
#2582094
03
#2582144
13
#2582194
03
#2582244
13
#2582294
03
#2582344
13
#2582394
11
03
#2582444
13
#2582494
03
#2582544
13
#2582848
01
03
#2582898
13
#2582948
03
#2582998
13
#2583048
03
#2583098
13
#2583148
03
#2583198
13
#2583248
03
#2583298
13
#2583348
03
#2583398
13
#2583448
03
#2583498
13
#2583548
03
#2583598
13
#2583698
11
#2583802
01
#2583902
03
#2583952
13
#2584002
03
#2584052
13
#2584102
03
#2584152
13
#2584202
03
#2584252
13
#2584302
03
#2584352
13
#2584402
03
#2584452
13
#2584502
03
#2584552
13
#2584602
03
#2584652
13
#2584752
11
#2584857
01
#2584956
03
#2585006
13
#2585056
03
#2585106
13
#2585156
03
#2585206
13
#2585256
03
#2585306
13
#2585356
03
#2585406
13
#2585456
03
#2585506
13
#2585556
03
#2585606
13
#2585656
03
#2585706
13
#2585807
11
#2585911
01
#2586010
03
#2586011
11
#2586060
13
#2586110
03
#2586160
13
#2586210
03
#2586260
13
#2586310
03
#2586360
13
#2586410
03
#2586460
13
#2586510
03
#2586560
13
#2586610
03
#2586660
13
#2586710
03
#2586760
13
#2587064
03
#2587115
13
#2587164
03
#2587215
13
#2587264
03
#2587315
13
#2587364
03
#2587415
13
#2587464
03
#2587515
13
#2587564
03
#2587615
13
#2587664
03
#2587715
13
#2587764
03
#2587815
13
#2588119
03
#2588169
13
#2588219
03
#2588269
13
#2588319
03
#2588369
13
#2588419
03
#2588469
13
#2588519
03
#2588569
13
#2588619
03
#2588669
13
#2588719
03
#2588769
13
#2588819
03
#2588869
13
#2589173
03
#2589223
13
#2589273
03
#2589323
13
#2589373
03
#2589423
13
#2589473
03
#2589523
13
#2589573
03
#2589623
13
#2589673
03
#2589723
13
#2589773
03
#2589823
13
#2589873
03
#2589923
13
#2590227
03
#2590277
13
#2590327
03
#2590377
13
#2590427
03
#2590477
13
#2590527
03
#2590577
13
#2590627
03
#2590677
13
#2590727
03
#2590777
13
#2590827
03
#2590877
13
#2590927
03
#2590977
13
#2591281
03
#2591331
13
#2591381
03
#2591431
13
#2591481
03
#2591531
13
#2591581
03
#2591631
13
#2591681
03
#2591731
13
#2591781
03
#2591831
13
#2591881
03
#2591931
13
#2591981
03
#2592031
13
#2592335
03
#2592386
13
#2592435
03
#2592486
13
#2592535
03
#2592586
13
#2592635
03
#2592686
13
#2592735
03
#2592786
13
#2592835
03
#2592886
13
#2592935
03
#2592986
13
#2593035
03
#2593086
13
#2593390
03
#2593440
13
#2593490
03
#2593540
13
#2593590
03
#2593640
13
#2593690
03
#2593740
13
#2593790
03
#2593840
13
#2593890
03
#2593940
13
#2593990
03
#2594040
13
#2594090
03
#2594140
13
#2594444
03
#2594494
13
#2594544
03
#2594594
13
#2594644
03
#2594694
13
#2594744
03
#2594794
13
#2594844
03
#2594894
13
#2594944
03
#2594994
13
#2595044
03
#2595094
13
#2595144
03
#2595194
13
#2595498
03
#2595548
13
#2595598
03
#2595648
13
#2595698
03
#2595748
13
#2595798
03
#2595848
13
#2595898
03
#2595948
13
#2595998
03
#2596048
13
#2596098
03
#2596148
13
#2596198
03
#2596248
13
#2596552
03
#2596602
13
#2596652
03
#2596702
13
#2596752
03
#2596802
13
#2596852
03
#2596902
13
#2596952
03
#2597002
13
#2597052
03
#2597102
13
#2597152
03
#2597202
13
#2597252
03
#2597302
13
#2597606
03
#2597656
13
#2597706
03
#2597756
13
#2597806
03
#2597856
13
#2597906
03
#2597956
13
#2598006
03
#2598056
13
#2598106
03
#2598156
13
#2598206
03
#2598256
13
#2598306
03
#2598356
13
#2598661
03
#2598711
13
#2598761
03
#2598811
13
#2598861
03
#2598911
13
#2598961
03
#2599011
13
#2599061
03
#2599111
13
#2599161
03
#2599211
13
#2599261
03
#2599311
13
#2599361
03
#2599411
13
#2599715
03
#2599765
13
#2599815
03
#2599865
13
#2599915
03
#2599965
13
#2600015
03
#2600065
13
#2600115
03
#2600165
13
#2600215
03
#2600265
13
#2600315
03
#2600365
13
#2600415
03
#2600465
13
#2600769
03
#2600819
13
#2600869
03
#2600919
13
#2600969
03
#2601019
13
#2601069
03
#2601119
13
#2601169
03
#2601219
13
#2601269
03
#2601319
13
#2601369
03
#2601419
13
#2601469
03
#2601519
13
#2601823
03
#2601873
13
#2601923
03
#2601973
13
#2602023
03
#2602073
13
#2602123
03
#2602173
13
#2602223
03
#2602273
13
#2602323
03
#2602373
13
#2602423
03
#2602473
13
#2602523
03
#2602573
13
#2602809
17
#4603646
07
#4603746
01
03
#4603796
13
#4603846
03
#4603896
13
#4603946
03
#4603996
13
#4604046
03
#4604096
13
#4604146
03
#4604196
13
#4604246
03
#4604296
13
#4604346
11
03
#4604396
13
#4604446
03
#4604496
13
#4604800
01
03
#4604850
13
#4604900
03
#4604950
13
#4605000
03
#4605050
13
#4605100
03
#4605150
13
#4605200
03
#4605250
13
#4605300
03
#4605350
13
#4605400
03
#4605450
13
#4605500
03
#4605550
13
#4605650
11
#4605755
01
#4605854
03
#4605904
13
#4605954
03
#4606004
13
#4606054
03
#4606104
13
#4606154
03
#4606204
13
#4606254
03
#4606304
13
#4606354
03
#4606404
13
#4606454
03
#4606504
13
#4606554
03
#4606604
13
#4606705
11
#4606809
01
#4606908
03
#4606958
13
#4607008
03
#4607058
13
#4607108
03
#4607158
13
#4607208
03
#4607258
13
#4607308
03
#4607358
13
#4607408
03
#4607458
13
#4607508
03
#4607558
13
#4607608
03
#4607658
13
#4607759
11
#4607863
01
#4607962
03
#4607963
11
#4608013
13
#4608062
03
#4608113
13
#4608162
03
#4608213
13
#4608262
03
#4608313
13
#4608362
03
#4608413
13
#4608462
03
#4608513
13
#4608562
03
#4608613
13
#4608662
03
#4608713
13
#4609017
03
#4609067
13
#4609117
03
#4609167
13
#4609217
03
#4609267
13
#4609317
03
#4609367
13
#4609417
03
#4609467
13
#4609517
03
#4609567
13
#4609617
03
#4609667
13
#4609717
03
#4609767
13
#4610071
03
#4610121
13
#4610171
03
#4610221
13
#4610271
03
#4610321
13
#4610371
03
#4610421
13
#4610471
03
#4610521
13
#4610571
03
#4610621
13
#4610671
03
#4610721
13
#4610771
03
#4610821
13
#4611125
03
#4611175
13
#4611225
03
#4611275
13
#4611325
03
#4611375
13
#4611425
03
#4611475
13
#4611525
03
#4611575
13
#4611625
03
#4611675
13
#4611725
03
#4611775
13
#4611825
03
#4611875
13
#4612179
03
#4612229
13
#4612279
03
#4612329
13
#4612379
03
#4612429
13
#4612479
03
#4612529
13
#4612579
03
#4612629
13
#4612679
03
#4612729
13
#4612779
03
#4612829
13
#4612879
03
#4612929
13
#4613233
03
#4613283
13
#4613333
03
#4613383
13
#4613433
03
#4613483
13
#4613533
03
#4613583
13
#4613633
03
#4613683
13
#4613733
03
#4613783
13
#4613833
03
#4613883
13
#4613933
03
#4613983
13
#4614287
03
#4614338
13
#4614387
03
#4614438
13
#4614487
03
#4614538
13
#4614587
03
#4614638
13
#4614687
03
#4614738
13
#4614787
03
#4614838
13
#4614887
03
#4614938
13
#4614987
03
#4615038
13
#4615342
03
#4615392
13
#4615442
03
#4615492
13
#4615542
03
#4615592
13
#4615642
03
#4615692
13
#4615742
03
#4615792
13
#4615842
03
#4615892
13
#4615942
03
#4615992
13
#4616042
03
#4616092
13
#4616396
03
#4616446
13
#4616496
03
#4616546
13
#4616596
03
#4616646
13
#4616696
03
#4616746
13
#4616796
03
#4616846
13
#4616896
03
#4616946
13
#4616996
03
#4617046
13
#4617096
03
#4617146
13
#4617450
03
#4617500
13
#4617550
03
#4617600
13
#4617650
03
#4617700
13
#4617750
03
#4617800
13
#4617850
03
#4617900
13
#4617950
03
#4618000
13
#4618050
03
#4618100
13
#4618150
03
#4618200
13
#4618504
03
#4618554
13
#4618604
03
#4618654
13
#4618704
03
#4618754
13
#4618804
03
#4618854
13
#4618904
03
#4618954
13
#4619004
03
#4619054
13
#4619104
03
#4619154
13
#4619204
03
#4619254
13
#4619558
03
#4619609
13
#4619658
03
#4619709
13
#4619758
03
#4619809
13
#4619858
03
#4619909
13
#4619958
03
#4620009
13
#4620058
03
#4620109
13
#4620158
03
#4620209
13
#4620258
03
#4620309
13
#4620613
03
#4620663
13
#4620713
03
#4620763
13
#4620813
03
#4620863
13
#4620913
03
#4620963
13
#4621013
03
#4621063
13
#4621113
03
#4621163
13
#4621213
03
#4621263
13
#4621313
03
#4621363
13
#4621667
03
#4621717
13
#4621767
03
#4621817
13
#4621867
03
#4621917
13
#4621967
03
#4622017
13
#4622067
03
#4622117
13
#4622167
03
#4622217
13
#4622267
03
#4622317
13
#4622367
03
#4622417
13
#4622721
03
#4622771
13
#4622821
03
#4622871
13
#4622921
03
#4622971
13
#4623021
03
#4623071
13
#4623121
03
#4623171
13
#4623221
03
#4623271
13
#4623321
03
#4623371
13
#4623421
03
#4623471
13
#4623775
03
#4623825
13
#4623875
03
#4623925
13
#4623975
03
#4624025
13
#4624075
03
#4624125
13
#4624175
03
#4624225
13
#4624275
03
#4624325
13
#4624375
03
#4624425
13
#4624475
03
#4624525
13
#4624761
17
#6625598
07
#6625698
01
03
#6625748
13
#6625798
03
#6625848
13
#6625898
03
#6625948
13
#6625998
03
#6626048
13
#6626098
03
#6626148
13
#6626198
03
#6626248
13
#6626298
03
#6626299
11
#6626348
13
#6626398
03
#6626448
13
#6626752
03
#6626753
01
#6626802
13
#6626852
03
#6626902
13
#6626952
03
#6627002
13
#6627052
03
#6627102
13
#6627152
03
#6627202
13
#6627252
03
#6627302
13
#6627352
03
#6627402
13
#6627452
03
#6627502
13
#6627603
11
#6627707
01
#6627806
03
#6627856
13
#6627906
03
#6627956
13
#6628006
03
#6628056
13
#6628106
03
#6628156
13
#6628206
03
#6628256
13
#6628306
03
#6628356
13
#6628406
03
#6628456
13
#6628506
03
#6628556
13
#6628657
11
#6628761
01
#6628860
03
#6628911
13
#6628960
03
#6629011
13
#6629060
03
#6629111
13
#6629160
03
#6629211
13
#6629260
03
#6629311
13
#6629360
03
#6629411
13
#6629460
03
#6629511
13
#6629560
03
#6629611
13
#6629711
11
#6629815
01
#6629915
11
03
#6629965
13
#6630015
03
#6630065
13
#6630115
03
#6630165
13
#6630215
03
#6630265
13
#6630315
03
#6630365
13
#6630415
03
#6630465
13
#6630515
03
#6630565
13
#6630615
03
#6630665
13
#6630969
03
#6631019
13
#6631069
03
#6631119
13
#6631169
03
#6631219
13
#6631269
03
#6631319
13
#6631369
03
#6631419
13
#6631469
03
#6631519
13
#6631569
03
#6631619
13
#6631669
03
#6631719
13
#6632023
03
#6632073
13
#6632123
03
#6632173
13
#6632223
03
#6632273
13
#6632323
03
#6632373
13
#6632423
03
#6632473
13
#6632523
03
#6632573
13
#6632623
03
#6632673
13
#6632723
03
#6632773
13
#6633077
03
#6633127
13
#6633177
03
#6633227
13
#6633277
03
#6633327
13
#6633377
03
#6633427
13
#6633477
03
#6633527
13
#6633577
03
#6633627
13
#6633677
03
#6633727
13
#6633777
03
#6633827
13
#6634131
03
#6634181
13
#6634231
03
#6634281
13
#6634331
03
#6634381
13
#6634431
03
#6634481
13
#6634531
03
#6634581
13
#6634631
03
#6634681
13
#6634731
03
#6634781
13
#6634831
03
#6634881
13
#6635185
03
#6635236
13
#6635285
03
#6635336
13
#6635385
03
#6635436
13
#6635485
03
#6635536
13
#6635585
03
#6635636
13
#6635685
03
#6635736
13
#6635785
03
#6635836
13
#6635885
03
#6635936
13
#6636240
03
#6636290
13
#6636340
03
#6636390
13
#6636440
03
#6636490
13
#6636540
03
#6636590
13
#6636640
03
#6636690
13
#6636740
03
#6636790
13
#6636840
03
#6636890
13
#6636940
03
#6636990
13
#6637294
03
#6637344
13
#6637394
03
#6637444
13
#6637494
03
#6637544
13
#6637594
03
#6637644
13
#6637694
03
#6637744
13
#6637794
03
#6637844
13
#6637894
03
#6637944
13
#6637994
03
#6638044
13
#6638348
03
#6638398
13
#6638448
03
#6638498
13
#6638548
03
#6638598
13
#6638648
03
#6638698
13
#6638748
03
#6638798
13
#6638848
03
#6638898
13
#6638948
03
#6638998
13
#6639048
03
#6639098
13
#6639402
03
#6639452
13
#6639502
03
#6639552
13
#6639602
03
#6639652
13
#6639702
03
#6639752
13
#6639802
03
#6639852
13
#6639902
03
#6639952
13
#6640002
03
#6640052
13
#6640102
03
#6640152
13
#6640456
03
#6640506
13
#6640556
03
#6640606
13
#6640656
03
#6640706
13
#6640756
03
#6640806
13
#6640856
03
#6640906
13
#6640956
03
#6641006
13
#6641056
03
#6641106
13
#6641156
03
#6641206
13
#6641510
03
#6641561
13
#6641610
03
#6641661
13
#6641710
03
#6641761
13
#6641810
03
#6641861
13
#6641910
03
#6641961
13
#6642010
03
#6642061
13
#6642110
03
#6642161
13
#6642210
03
#6642261
13
#6642565
03
#6642615
13
#6642665
03
#6642715
13
#6642765
03
#6642815
13
#6642865
03
#6642915
13
#6642965
03
#6643015
13
#6643065
03
#6643115
13
#6643165
03
#6643215
13
#6643265
03
#6643315
13
#6643619
03
#6643669
13
#6643719
03
#6643769
13
#6643819
03
#6643869
13
#6643919
03
#6643969
13
#6644019
03
#6644069
13
#6644119
03
#6644169
13
#6644219
03
#6644269
13
#6644319
03
#6644369
13
#6644673
03
#6644723
13
#6644773
03
#6644823
13
#6644873
03
#6644923
13
#6644973
03
#6645023
13
#6645073
03
#6645123
13
#6645173
03
#6645223
13
#6645273
03
#6645323
13
#6645373
03
#6645423
13
#6645727
03
#6645777
13
#6645827
03
#6645877
13
#6645927
03
#6645977
13
#6646027
03
#6646077
13
#6646127
03
#6646177
13
#6646227
03
#6646277
13
#6646327
03
#6646377
13
#6646427
03
#6646477
13
#6646713
17
